2OVM and 2OVH
h-bond-2_74.png
Distance between atom ARG:NH2 and AS0:O14: 2.740701

2JFA and 2JF9
h-bond-2_61.png
Distance between atom ASP:OD1 and OHT:N24: 2.617732

2JF9 and 3KMZ
no-nitrogen.png

2OVH and 3KMZ
diff-hydro.png
Distance between atom EQO:OAC and ARG:NH1: 3.220867

